<?xml version="1.0" encoding="iso-8859-1"?>
<!-- Generator: Adobe Illustrator 16.0.0, SVG Export Plug-In . SVG Version: 6.00 Build 0)  -->
<!DOCTYPE svg PUBLIC "-//W3C//DTD SVG 1.1//EN" "http://www.w3.org/Graphics/SVG/1.1/DTD/svg11.dtd">
<svg version="1.1" id="Layer_1" xmlns="http://www.w3.org/2000/svg" xmlns:xlink="http://www.w3.org/1999/xlink" x="0px" y="0px"
	 width="7.938px" height="7.939px" viewBox="0 0 7.938 7.939" style="enable-background:new 0 0 7.938 7.939;" xml:space="preserve"
	>
<g>
	<defs>
		<circle id="SVGID_1_" cx="3.971" cy="3.972" r="3.499"/>
	</defs>
	<clipPath id="SVGID_2_">
		<use xlink:href="#SVGID_1_"  style="overflow:visible;"/>
	</clipPath>
	<rect x="0.769" y="0.659" style="clip-path:url(#SVGID_2_);fill:#FFFFFF;" width="6.686" height="6.688"/>
	<rect x="5.01" y="0.659" style="clip-path:url(#SVGID_2_);fill:#EE2E24;" width="2.199" height="6.706"/>
	<rect x="0.728" y="0.659" style="clip-path:url(#SVGID_2_);fill:#2B3990;" width="2.203" height="6.706"/>
	<use xlink:href="#SVGID_1_"  style="overflow:visible;fill:none;stroke:#FFFFFF;stroke-width:0.65;stroke-miterlimit:10;"/>
</g>
</svg>
