<?xml version="1.0" encoding="iso-8859-1"?>
<!-- Generator: Adobe Illustrator 16.0.0, SVG Export Plug-In . SVG Version: 6.00 Build 0)  -->
<!DOCTYPE svg PUBLIC "-//W3C//DTD SVG 1.1//EN" "http://www.w3.org/Graphics/SVG/1.1/DTD/svg11.dtd">
<svg version="1.1" id="Layer_1" xmlns="http://www.w3.org/2000/svg" xmlns:xlink="http://www.w3.org/1999/xlink" x="0px" y="0px"
	 width="7.938px" height="7.939px" viewBox="0 0 7.938 7.939" style="enable-background:new 0 0 7.938 7.939;" xml:space="preserve"
	>
<g>
	<defs>
		<path id="SVGID_1_" d="M7.472,3.971c0,1.934-1.566,3.502-3.502,3.502c-1.932,0-3.498-1.568-3.498-3.502
			c0-1.936,1.566-3.502,3.498-3.502C5.905,0.469,7.472,2.036,7.472,3.971z"/>
	</defs>
	<clipPath id="SVGID_2_">
		<use xlink:href="#SVGID_1_"  style="overflow:visible;"/>
	</clipPath>
	<rect x="0.584" y="0.674" style="clip-path:url(#SVGID_2_);fill:#EE2E24;" width="6.6" height="6.647"/>
	<g style="clip-path:url(#SVGID_2_);">
		<rect x="0.38" y="3.453" style="fill:#2B3990;" width="6.971" height="1.251"/>
		<path style="fill:#FFFFFF;" d="M7.151,3.653v0.851H0.581V3.653H7.151 M7.552,3.253h-0.4H0.581h-0.4v0.4v0.851v0.4h0.4h6.571h0.4
			v-0.4V3.653V3.253L7.552,3.253z"/>
	</g>
	<g style="clip-path:url(#SVGID_2_);">
		<rect x="1.87" y="0.591" style="fill:#2B3990;" width="1.251" height="7.106"/>
		<path style="fill:#FFFFFF;" d="M2.921,0.792v6.706H2.07V0.792H2.921 M3.321,0.392h-0.4H2.07h-0.4v0.4v6.706v0.4h0.4h0.851h0.4
			v-0.4V0.792V0.392L3.321,0.392z"/>
	</g>
	<rect x="-0.127" y="3.654" style="clip-path:url(#SVGID_2_);fill:#2B3990;" width="7.989" height="0.851"/>
	<use xlink:href="#SVGID_1_"  style="overflow:visible;fill:none;stroke:#FFFFFF;stroke-width:0.65;stroke-miterlimit:10;"/>
</g>
</svg>
